         Thing                      |  Generic |
 **Resources**                      |          |
 Generic                            |-80|
 First Element                      |-100|
 Second Element                     |-110|
 Third Element                      |-130|
 Fourth Element                     |-140|
 Fifth Element                      |-150|
 Sixth Element                      |-160|
 **Sacrifice your cards**           |          |
 Any permanent                      |-130|
 Specified type                     |-180|
 **Generic Penalties**              |          |
 Comes into play exhausted          |0|
 **Rarity**                         |          |
 Common                             |0|
 Uncommon                           |-10|
 Rare                               |-30|
 Unique                             |-70|
 **Units**                          |          |
 Attack Stat                        |50|
 Defence Stat                       |30|
 **Trick**                          |          |
 Trick                              |30|
 **Target**                         |          |
 Target type (Permanent)            |220|
 Target type (Resource)             |180|
 Target type (Unit)                 |20|
 Target type (Enhancement)          |50|
 You                                |30|
 Opponent                           |50|
 Everyone                           |    x2    |
 **From Location**                  |          |
 Graveyard                          |30|
 Hand                               |70|
 Deathzone                          |140|
 Chronicle                          |10|
 Archive                            |    x2    |
 **To Location**                    |          |
 Graveyard                          |60|
 Hand                               |60|
 Deathzone                          |140|
 Chronicle (to top)                 |80|
 **Damage**                         |          |
 1 damage to a player               |140|
 1 damage to a unit                 |40|
 **Abilities**                      |          |
 Prevent attacking                  |140|
 Prevent blocking                   |200|
 Prevent attacking and blocking     |200|
 Force blocking                     |200|
 Swap stats                         |60|
 Draw a card                        |100|
 Create a token                     |50|
 **Keywords**                       |          |
 Flying                             |70|
 Overrun                            |120|
 Bypass                             |100|
 Resistance                         |40|
 Inanimate                          |-50|
 Determined                         |50|
 Ranged                             |30|
 Fury                               |100|
 Haste                              |60|
 Extend                             |30|
 Blocker                            |20|
 Unblockable                        |120|
 **Counterspell**                   |          |
 Counter specific type              |40|
 Counter any card                   |80|
 Counter any ability                |80|
 Counter anything                   |100|
 **Movement**                       |          |
 Bounce                             |40|
 Search                             |40|
 Rearrange                          |60|
 Look at                            |70|
 Return                             |60|
 Destroy                            |100|
 Reanimante                         |120|
 Discard choice                     |120|
 Discard random                     |80|
 Take control                       |110|
 Put into play                      |140|
 Trapping                           |30|
 **Boons**                          |          |
 +1 attack                          |40|
 +1 defence                         |20|
 +1 generic resource                |40|
 +1 resource                        |50|
 **Repeated Effects**               |          |
 Repeat when creature attacks       |230|
 Repeat when drawing a card         |200|
 Repeat by exhausting this card     |180|
 Repeat by exhausting any card      |210|
 **Stand**                          |          |
 Stand unit                         |160|
 Stand enhancement                  |130|
 Stand resource                     |60|
 **Exhaust**                        |          |
 Exhaust unit                       |120|
 Exhaust enhancement                |120|
 Exhaust resource                   |10|
 Prevent from readying next turn    |20|
 **Deathzone**                      |          |
                                    |          | 
**Abilities we need to name**       |          |   
 Reduce casting cost of spells by 1 |30|
 Until end of turn                  |-50|
 For Each                           |    x2.0  |
 Unable to block                    |-80|
 Additional Costs to Ability        |-30|
 Hexproof                           |40|
 Indestrucable                      |100|
 Super Overrun                      |160|
 First Strike                       |20|
 Arm (thinking about a word for Equip)                       |20|
