Name|Image|Type|Subtype|Rarity|Attack|Defence|Resource|Ability|Plain English Ability|Death Zone Ability|Plain English Death Zone Ability|Flavour Text
Spark||Unit||Common |0|1|Fire||Identifies as Fire |||
Eruption||Conjured||Uncommon|-|-|Fire|\all{unit}{player}<destroy>|Destroy all units target player controls.|\target{unit}{any}<damage>{5}|Deal 5 damage to target unit|
Heat Wave||Enhancement ||Uncommon|-|-|Fire|\all{unit}{you}<boon>{1}{1}|Units you control get +1 +1.|||
Ignite||Trick||Common|-|-|Fire|\target{unit}{any}<destroy>[non-fire]|Destroy target non-Fire unit.|\target{resource}{any}<destroy>|Destroy target Resource |
Living Flame||Unit||Uncommon|2|3|Fire|\trigger{dies}{unit}{any}<damage>{2}|When this unit dies target unit takes 2 damage.|||
Scald||Trick||Common|-|-|Fire|\target{player}{any}<damage>{2}|Target player takes 2 damage.|/target{water}{any}<counter>|Counter target water spell|
Charcoal Golem||Unit||Common|1|4|Fire / Earth|||||
Fire Ball||Trick||Uncommon |~|~|Fire |\target{perm}{any}<damage>{3}|Deals 3 damage to target permanent.|\create{token}{unit}{you}<token>{1}{3}{1}[fire elemental][haste]|Create a token with 3/1 named fire Elemental with haste|
Lizard Man Farmer||Unit||Common|1|1|Fire|||||
Lizard Man Warrior||Unit||Common|2|1|Fire|||||
Lizard Man Priest||Unit||Uncommon |2|2|Fire|\activate{activate}{exhaust}{this}{player}{any}<damage>{2}|Exhaust: Deals 2 damage to target player.|||
Lizard Man Shaman||Unit||Rare|1|1|Fire|\activate{activate}{pay}{0}[1]{any}{any}<damage>{2}|F : Deals 2 damage to target unit or player.|||
Lizard Man Captain||Unit|Enhance: Global: LizardMen|Uncommon|3|3|Fire|\all{lizard men}{any}[attack][with][this]<boon>{2}{2}|All Other Lizard Men get +2/+2 as long as the captain has attacked this turn.|||
Lizard Man General||Unit|Enhance: Attack: LizardMen|Rare|3|3|Fire||F: All Lizard Men get +1/+1 when they attack.|||
Comet Storm||Conjured||Uncommon|~|~|Fire|\all{all}{all}<damage>{x}|Comet Storm deal X damage to each unit and opponent.|\target{unit}{any}<fury>|Target unit gains Fury|
Dragon Nest||Enhancement||Uncommon|~|~|Fire|\activate{token}{sac}{2}{unit}{unit}{you}<token>{1}{4}{4}|Sacrifice 2 Units: put a 4/4 dragon token onto the battlefield.|||
Goblin Burrow||Trick||Common|~|~|Fire|\create{token}{unit}{you}<token>{2}{1}{1}|Put 2 1/1 goblins into the battlefield.|\create{counter}{unit}{any}<token>{1}{+1}{+1}|Target unit gets a +1/+1 token|
Shattering Forge||Enhancement||Uncommon|~|~|Fire|\activate{activate}{sac}{1}{perm}{enhancement}{any}<destroy>|Sacrifice a permanent: destroy target enhancement.|||
Battle Forge||Enhancement||Rare|~|~|Fire|\activate{target}{pay}{0}[1]{unit}{any}[eot]<boon>{1}{1}|F: Target unit gets +1/+1 until end of turn.|||
Dragon Youth||Unit||Common|3|3|Fire|||||
Elder Dragon||Unit||Rare|5|5|Fire|\activate{activate}{pay}{0}[1]{this}{you}<boon>{1}{0}|F: Elder Dragon gets +1/+0  |||
Endless Battle||Enhancement ||Unique|~|~|Fire ||Whenever a unit deals combat damage you may Stand an other target unit.||This card counts as 2 in your Deathzone|
Lava Vent||Trick||Uncommon|~|~|Fire||Deal 3 damage to target unit you may pay F to deal this damage to an additional unit.|\create{token}{unit}{you}<token>{1}{3}{3}[lava elemental]|Create a 3/3 lava elemental token|
Magma Breath||Enhancement|Enhance: Unit|Common|~|~|Fire||Enhanced unit gets F: +1/+0.|||
Camp Fire||Enhancement||Uncommon|~|~|Fire||For each exhausted unit you control, reduce the total damage taken this turn by 1.|||
Bonfire||Enhancement||Rare|~|~|Fire||For each exhausted unit you control, reduce the total damage taken this turn by 2.|||
Colours in the Flames||Enhancement||Uncommon|~|~|Fire||Exhaust F: All Fire resources can tap for any colour until the end of turn.|||
Dragon Caller||Unit||Uncommon|2|2|Fire|\activate{activate}{expay}{2}[1]{this}{you}<search>{unit}{chronicle}{hand}{1}|Exhaust 2F: Look through your Chronicle for a unit and put it into your hand.|||
Burning Embers||Conjured||Common|~|~|Fire|\target{player}{you}<discard>{hand}{draw}[+1]|Discard you hand then draw that many cards +1.|\target{card}{you}<move>{graveyard}{hand}{1}|Return a card from your Graveyard to your hand|
Stoke the Fire||Enhancement||Uncommon|~|~|Fire|\trigger{start}{spark}{you}<search>{spark}{chronicle}{battlefield}{1}\all{spark}{any}<boon>{1}{0}|In your turn, search your Chronicle for a Spark card and put it into play. All Spark cards get +1/+0.|||
Dragon of the Burning Rage||Unit||Rare|5|5|Fire||When attacking, pay 1F: deal 2 damage to target unit.|||
Internal Combustion||Trick||Common|~|~|Fire|\target{unit}{any}[dies]{damage}{5}[player]<damage>{2}|Deal 2 damage to target unit. If this unit dies, it deals 5 damage to target player.|\target{unit}{any}<destroy>|Destroy target Unit|
Immolation||Conjured||Rare|~|~|Fire|\activate{activate}{sac}{1}{unit}{any}<damage>{2}|Sacrifice a unit: deal 2 damage to target permanent or player.||Put x 1/1 goblins with haste into the battlefield where x is the amount of damage delt this turn  |
Phoenix Egg||Unit||Common|0|1|Fire||Each turn, put a new Phoenix Egg token onto the battlefield. When you cast a Phoenix card,  sacrifice all `Egg' cards, replacing them with 3/3 Phoenix tokens with flying.|||
Phoenix Reborn||Unit||Uncommon|2|3|Fire||If this card goes to your graveyard, shuffle it into your deck.|||
Grand Phoenix||Unit||Rare|5|5|Fire||When Grand Phoenix goes to your graveyard, you may return target unit card from the graveyard to the battlefield.|||
Volcanic Spout||Conjured||Common|~|~|Fire|\target{unit}{any}[requirement]{with}[flying]<damage>{5}|Deal 5 damage to target Unit with flying.||Place the top card of your chronicle into the battlefield as a resource|
Jinn of the Spark||Unit||Rare|3|3|Fire||Exhaust 2F: When target unit deals combat damage draw that many cards.|||
Ifrit of the Forgotten Light||Unit||Uncommon|4|4|Fire||On entering the battlefield each unit without flying is dealt 3 damage.|||
Right of Passage||Enhancement|Enhance: Unit|Rare|~|~|Fire||Ready target unit. That unit gets a -1/+0 token. After the unit has attacked, you may sacrifice it and attach this enhancement to another unit you control.|||
Fire Weavers Gauntlet||Enhancement|Enhance: Unit|Uncommon|~|~|Fire||Pay 2 to attach to target unit. Attached unit gets pay F: deal 1 damage to target player or unit.|||
Fire Brand||Enhancement||Common|~|~|Fire||Sacrifice: Fire brand deals 3 damage to target unit or player.|||
Incinerate||Trick||Common|~|~|Fire|\target{enhancement}{any}<destroy>|Destroy target enhancement.||Draw the top 5 cards from you chronicle and put 3 back in any order.|
Fire Juggler||Unit||Uncommon|2|2|Fire||Exhaust: Shuffle target card from your hand into your Chronicle draw 2 cards.|||
Cinder Golem||Unit||Rare|3|4|Fire|||||
Phoenix Feather||Enhancement||Uncommon|~|~|Fire||If a unit you control would die  sacrifice Phoenix feather and return the unit from the graveyard to the battlefield.|||
Phoenix Claw||Enhancement|Enhance: Unit|Uncommon|~|~|Fire ||Pay 2: Attach to target unit. That unit gains the ability `fury'.|||
The Hot Gates||Enhancement||Uncommon|~|~|Fire ||Only 1 unit may attack you each turn.|||
Burning the Midnight Oil||Trick||Rare|~|~|Fire||Draw a card for each card less than 7 in your hand.||Target player discards 2 cards from there hand at random|
Blood Boil||Trick||Common|~|~|Fire||Target unit gets +4/+1. Sacrifice it at end of turn.|\target{unit}{any}<haste><fury>|Target unit gains haste and fury|
Boiling Oil||Trick||Uncommon|~|~|Fire||Deal 5 damage to each unit that attacked you this turn.||Units that are blocked this turn Destroy the unit blocking them regardless of damage |
Oil Scaled Dragon||Unit||Rare|4|6|Fire||Whenever Oil Scale Dragon is dealt damaged it deals that much damage to target player.|||
Purifying Flame||Conjured||Uncommon|~|~|Fire|\all{enhancement}{player}<destroy>|Destroy all enhancements target player controls.||Gain 3 fire resource this turn |
Branded by the Mark||Enhancement||Common|~|~|Fire||1: Each turn you may brand target unit that unit gets +1/+1 until the enchantment is destroyed.|||
Cremation||Trick||Uncommon|~|~|Fire||Deal 1 damage to target unit. If this unit would go to the graveyard this turn, it goes to the deathzone instead.||put target unit from a graveyard into its owners Deathzone|
Searing Sight||Conjured||Common|~|~|Fire||Look at the top 3 cards of an opponent's deck and remove target unit that unit goes to the deathzone.||look at the top 3 cards of your Chronicle and put them back in any order|
Great Fire||Conjured||Rare|~|~|Fire||Put the top X cards from target opponent's deck into the graveyard.|||
Forest Fire||Conjured||Uncommon|~|~|Fire|\target{resource}{any}<destroy>|Destroy target resource.|||
Forge Press||Enhancement||Rare|~|~|Fire|\target{enhancement}{any}<copy>[this]|Make a copy of target enhancement.|||
Lava Fields||Trick||Common|~|~|Fire||Units that attack you this turn will be destroyed unless they have flying.|||
Embers on the Wind||Conjured||Uncommon|~|~|Fire/Air|\target{fire}{you}<search>{fire}{chronicle}{top}{1}|Search your deck for a Fire card then shuffle your deck and place this card on top.||Put the top card of your chronicle onto the battlefield|
Ignition Spark||Trick||Common|~|~|Fire||If a unit has been dealt damage this turn destroy it and send it to that player's deathzone.||Return a unit from your graveyard to the battlefield|
Black Dragon||Unit||Uncommon|4|4|Fire|||||
Ashin Phoenix||Unit||Common|2|2|Fire|||||
Fire Giant||Unit||Uncommon|3|4|Fire||Whenever you cast a fire spell, you may pay FF and copy the spell.|||
Righteous Flame||Trick||Uncommon|~|~|Fire ||Deals 5 damage to each unit.||Each unit gains +3+3 and overrun until end of turn|
Volcanic Sentinel||Unit||Uncommon|3|8|Fire||Sentinel may attack if he killed a unit the turn before.|||
Vital Spark||Conjured||Common|~|~|Fire|\target{perm}{any}<damage>{1}|Deal 1 damage to target permanent||When this card goes into the Deathzone it deals 2 Damage to target Permanent|
||||||||||||
||||||||||||
||||||||||\target{unit}{any}<damage>{5}|Deal 5 damage to target unit|
